{
    "KPlugin": {
        "Authors": [
            {
                "Email": "mvourlakos@gmail.com, audoban@openmailbox.org",
                "Name": "Michail Vourlakos, Smith Ar",
                "Name[az]": "Michail Vourlakos, Smith Ar",
                "Name[ca@valencia]": "Michail Vourlakos, Smith Ar",
                "Name[ca]": "Michail Vourlakos, Smith Ar",
                "Name[es]": "Michail Vourlakos, Smith Ar",
                "Name[fr]": "Michail Vourlakos, Smith Ar",
                "Name[it]": "Michail Vourlakos, Smith Ar",
                "Name[nl]": "Michail Vourlakos, Smith Ar",
                "Name[pt]": "Michail Vourlakos, Smith Ar",
                "Name[sl]": "Michail Vourlakos, Smith Ar",
                "Name[sv]": "Michail Vourlakos, Smith Ar",
                "Name[tr]": "Michail Vourlakos, Smith Ar",
                "Name[uk]": "Михаїл Ворлакос (Michail Vourlakos), Сміт Ар (Smith Ar)",
                "Name[x-test]": "xxMichail Vourlakos, Smith Arxx",
                "Name[zh_CN]": "Michail Vourlakos, Smith Ar"
            }
        ],
        "Category": "Windows and Tasks",
        "Description": "Tasks plasmoid from Latte Dock",
        "Description[az]": "Latte Dokdan Tapşırılar plasmoidi",
        "Description[ca@valencia]": "Plasmoide de tasques de Latte Dock",
        "Description[ca]": "Plasmoide de tasques del Latte Dock",
        "Description[es]": "Plasmoide de tareas de Latte Dock",
        "Description[fr]": "Composant graphique de tâches pour le panneau de Latte",
        "Description[it]": "Plasmoide dei processi da Latte Dock",
        "Description[nl]": "Widget voor taken uit Latte Dock",
        "Description[pt]": "Plasmóide de tarefas da Área Acoplável do Latte",
        "Description[sl]": "Plasmoidi nalog iz Latte Dock",
        "Description[sv]": "Aktivitetsplasmoid för Latte dockningsfönster",
        "Description[tr]": "Latte Rıhtım'dan görevler Plasmoid'i",
        "Description[uk]": "Плазмоїд завдань з панелі Латте",
        "Description[x-test]": "xxTasks plasmoid from Latte Dockxx",
        "Description[zh_CN]": "Latte 停靠栏的任务管理 Plasma 部件",
        "EnabledByDefault": true,
        "Icon": "latte-dock",
        "Id": "org.kde.latte.plasmoid",
        "License": "GPL v2+",
        "Name": "Latte Tasks",
        "Name[ar]": "مهام لاتيه",
        "Name[az]": "Latte Tapşırıqları",
        "Name[ca@valencia]": "Tasques de Latte",
        "Name[ca]": "Tasques del Latte",
        "Name[cs]": "Úlohy Latte",
        "Name[el]": "Εργασίες Latte",
        "Name[en_GB]": "Latte Tasks",
        "Name[es]": "Tareas de Latte",
        "Name[et]": "Latte ülesanded",
        "Name[eu]": "Latte atazak",
        "Name[fi]": "Latte-tehtävät",
        "Name[fr]": "Tâches Latte",
        "Name[gl]": "Tarefas de Latte",
        "Name[id]": "Tugas-tugas Latte",
        "Name[it]": "Processi di Latte",
        "Name[ko]": "Latte 작업",
        "Name[lt]": "Latte užduotys",
        "Name[nl]": "Latte-taken",
        "Name[nn]": "Latte-oppgåver",
        "Name[pl]": "Zadania Latte",
        "Name[pt]": "Tarefas do Latte",
        "Name[pt_BR]": "Tarefas do Latte",
        "Name[ru]": "Процессы Latte",
        "Name[sk]": "Úlohy pre Latte",
        "Name[sl]": "Naloge Latte",
        "Name[sv]": "Latte aktiviteter",
        "Name[tr]": "Latte Görevler",
        "Name[uk]": "Завдання Латте",
        "Name[x-test]": "xxLatte Tasksxx",
        "Name[zh_CN]": "Latte 任务管理器",
        "Name[zh_TW]": "Latte 工作",
        "ServiceTypes": [
            "Plasma/Applet"
        ],
        "Version": "0.1",
        "Website": "https://userbase.kde.org/LatteDock"
    },
    "X-Plasma-API": "declarativeappletscript",
    "X-Plasma-MainScript": "ui/main.qml",
    "X-Plasma-Provides": [
        "org.kde.plasma.multitasking"
    ]
}
