{
    "KPlugin": {
        "Authors": [
            {
                "Email": "mvourlakos@gmail.com",
                "Name": "Michail Vourlakos",
                "Name[az]": "Michail Vourlakos",
                "Name[ca@valencia]": "Michail Vourlakos",
                "Name[ca]": "Michail Vourlakos",
                "Name[es]": "Michail Vourlakos",
                "Name[fr]": "Michail Vourlakos",
                "Name[it]": "Michail Vourlakos",
                "Name[nl]": "Michail Vourlakos",
                "Name[pt]": "Michail Vourlakos",
                "Name[sl]": "Michail Vourlakos",
                "Name[sv]": "Michail Vourlakos",
                "Name[tr]": "Michail Vourlakos",
                "Name[uk]": "Михаїл Ворлакос (Michail Vourlakos)",
                "Name[x-test]": "xxMichail Vourlakosxx",
                "Name[zh_CN]": "Michail Vourlakos"
            }
        ],
        "Category": "Latte Indicator",
        "Description": "Plasma Tab style indicator for Latte",
        "Description[az]": "Latte üçün Plasma Vərəq Üslubu göstəricisi",
        "Description[ca@valencia]": "Indicador a l'estil pestanya de Plasma per a Latte",
        "Description[ca]": "Indicador a l'estil pestanya del Plasma per al Latte",
        "Description[es]": "Indicador de estilo de pestaña Plasma para Latte",
        "Description[fr]": "Indicateur dans le style des onglets de Plasma pour Latte",
        "Description[it]": "Indicatore stile delle schede di Plasma di Latte",
        "Description[nl]": "Plasma-tabblad stijl indicator voor Latte",
        "Description[pt]": "Indicador do estilo de Páginas do Plasma para o Latte",
        "Description[sl]": "Kazalnik sloga Latte Plasma zavihkov",
        "Description[sv]": "Plasma flikstilsindikator för Latte",
        "Description[tr]": "Latte için Plasma sekme biçemi göstergesi",
        "Description[uk]": "Індикатор стилю вкладок Плазми для Латте",
        "Description[x-test]": "xxPlasma Tab style indicator for Lattexx",
        "Description[zh_CN]": "Latte 的 Plasma 标签页风格指示器",
        "EnabledByDefault": true,
        "Icon": "latte-dock",
        "Id": "org.kde.latte.plasmatabstyle",
        "License": "GPL v2+",
        "Name": "Plasma Tab Style",
        "Name[ar]": "نمط ألسنة بلازما",
        "Name[az]": "Plasma Vərəq Üslubu",
        "Name[ca@valencia]": "Estil pestanya de Plasma",
        "Name[ca]": "Estil pestanya del Plasma",
        "Name[cs]": "Styl Karet Plasma",
        "Name[en_GB]": "Plasma Tab Style",
        "Name[es]": "Estilo de pestaña Plasma",
        "Name[et]": "Plasma kaardistiil",
        "Name[eu]": "Plasmako fitxen estiloa",
        "Name[fi]": "Plasma-välilehtityyli",
        "Name[fr]": "Style de l'onglet de Plasma",
        "Name[gl]": "Estilo de separador de Plasma",
        "Name[it]": "Stile delle schede di Plasma",
        "Name[ko]": "Plasma 탭 스타일",
        "Name[lt]": "Plasma kortelių stilius",
        "Name[nl]": "Plasma-tabblad stijl",
        "Name[nn]": "Faner i Plasma-stil",
        "Name[pl]": "Wygląd karty Plazmy",
        "Name[pt]": "Estilo de Páginas do Plasma",
        "Name[pt_BR]": "Estilo de abas do Plasma",
        "Name[sk]": "Plasma štýl kariet",
        "Name[sl]": "Slog Plasma zavihkov",
        "Name[sv]": "Plasma flikstil",
        "Name[tr]": "Plasma Sekme Biçemi",
        "Name[uk]": "Стиль вкладок Плазми",
        "Name[x-test]": "xxPlasma Tab Stylexx",
        "Name[zh_CN]": "Plasma 标签页风格",
        "Name[zh_TW]": "Plasma 分頁樣式",
        "ServiceTypes": [
            "Latte/Indicator"
        ],
        "Version": "0.1"
    },
    "X-Latte-MainScript": "ui/main.qml",
    "X-Plasma-API": "declarativeappletscript"
}
