{
    "KPlugin": {
        "Authors": [
            {
                "Email": "mvourlakos@gmail.com, audoban@openmailbox.org",
                "Name": "Michail Vourlakos, Smith Ar",
                "Name[az]": "Michail Vourlakos, Smith Ar",
                "Name[ca@valencia]": "Michail Vourlakos, Smith Ar",
                "Name[ca]": "Michail Vourlakos, Smith Ar",
                "Name[es]": "Michail Vourlakos, Smith Ar",
                "Name[fr]": "Michail Vourlakos, Smith Ar",
                "Name[it]": "Michail Vourlakos, Smith Ar",
                "Name[nl]": "Michail Vourlakos, Smith Ar",
                "Name[pt]": "Michail Vourlakos, Smith Ar",
                "Name[sl]": "Michail Vourlakos, Smith Ar",
                "Name[sv]": "Michail Vourlakos, Smith Ar",
                "Name[tr]": "Michail Vourlakos, Smith Ar",
                "Name[uk]": "Михаїл Ворлакос (Michail Vourlakos), Сміт Ар (Smith Ar)",
                "Name[x-test]": "xxMichail Vourlakos, Smith Arxx",
                "Name[zh_CN]": "Michail Vourlakos, Smith Ar"
            }
        ],
        "Description": "Shell provided for the Latte Dock",
        "Description[az]": "Latte Dok paneli üçün nəzərdə tutulan üzlük",
        "Description[ca@valencia]": "Intèrpret d'ordres proporcionat per Latte Dock",
        "Description[ca]": "Intèrpret d'ordres proporcionat pel Latte Dock",
        "Description[es]": "Shell proporcionada para Latte Dock",
        "Description[fr]": "Interpréteur de commandes fourni pour le panneau de Latte",
        "Description[it]": "Shell fornita per Latte Dock",
        "Description[nl]": "Shell geleverd voor de Latte Dock",
        "Description[pt]": "Consola oferecida para a área acoplável do Latte",
        "Description[sl]": "Shell za Latte Dock",
        "Description[sv]": "Skal tillhandahållet för Latte dockningsfönster",
        "Description[tr]": "Latte Rıhtım için sağlanan kabuk",
        "Description[uk]": "Оболонка панелі Латте",
        "Description[x-test]": "xxShell provided for the Latte Dockxx",
        "Description[zh_CN]": "用于 Latte 停靠栏的 Shell",
        "Id": "org.kde.latte.shell",
        "License": "GPLv3+",
        "Name": "Latte Shell",
        "Name[ar]": "صدفة لاتيه",
        "Name[az]": "Latte Üzlüyü",
        "Name[ca@valencia]": "Intèrpret d'ordres de Latte",
        "Name[ca]": "Intèrpret d'ordres del Latte",
        "Name[cs]": "Shell Latte",
        "Name[da]": "Latte-skal",
        "Name[de]": "Latte-Shell",
        "Name[el]": "Κέλυφος Latte",
        "Name[en_GB]": "Latte Shell",
        "Name[es]": "Consola de Latte",
        "Name[et]": "Latte shell",
        "Name[eu]": "Latte Shell-a",
        "Name[fi]": "Latte-käyttöliittymä",
        "Name[fr]": "Interpréteur de commandes pour Latte",
        "Name[gl]": "Intérprete de ordes de Latte",
        "Name[id]": "Shell Latte",
        "Name[it]": "shell Latte",
        "Name[ko]": "Latte 셸",
        "Name[lt]": "Latte apvalkalas",
        "Name[nl]": "Latte-shell",
        "Name[nn]": "Latte-skal",
        "Name[pl]": "Powłoka Latte",
        "Name[pt]": "Consola do Latte",
        "Name[pt_BR]": "Latte Shell",
        "Name[ru]": "Оболочка Latte",
        "Name[sk]": "Latte Shell",
        "Name[sl]": "Shell Latte",
        "Name[sv]": "Latte skal",
        "Name[tr]": "Latte Kabuk",
        "Name[uk]": "Оболонка Латте",
        "Name[x-test]": "xxLatte Shellxx",
        "Name[zh_CN]": "Latte Shell",
        "Name[zh_TW]": "Latte Shell",
        "ServiceTypes": [
            "Plasma/Shell"
        ],
        "Website": "https://userbase.kde.org/LatteDock"
    },
    "Keywords": "shell",
    "Keywords[ar]": "الصدَفة",
    "Keywords[az]": "üzlük",
    "Keywords[ca@valencia]": "intèrpret d'ordres",
    "Keywords[ca]": "intèrpret d'ordres",
    "Keywords[cs]": "shell",
    "Keywords[da]": "skal",
    "Keywords[de]": "Shell",
    "Keywords[el]": "κέλυφος",
    "Keywords[en_GB]": "shell",
    "Keywords[es]": "consola",
    "Keywords[et]": "shell",
    "Keywords[eu]": "shell",
    "Keywords[fi]": "käyttöliittymä",
    "Keywords[fr]": "interpréteur",
    "Keywords[gl]": "intérprete de ordes",
    "Keywords[ia]": "shell",
    "Keywords[id]": "shell",
    "Keywords[it]": "shell",
    "Keywords[ko]": "셸",
    "Keywords[lt]": "apvalkalas",
    "Keywords[nl]": "shell",
    "Keywords[nn]": "skal",
    "Keywords[pl]": "powłoka",
    "Keywords[pt]": "consola",
    "Keywords[pt_BR]": "shell",
    "Keywords[ru]": "оболочка",
    "Keywords[sk]": "shell",
    "Keywords[sl]": "shell",
    "Keywords[sv]": "skal",
    "Keywords[uk]": "оболонка",
    "Keywords[x-test]": "xxshellxx",
    "Keywords[zh_CN]": "shell",
    "Keywords[zh_TW]": "shell",
    "X-KDE-ParentApp": "latte-dock"
}
